{
  "is_microg_broken":false,
  "manager": {
    "version": "1.0.0",
    "versionCode": 100,
    "url": "https://github.com/mstf01/AeroManager/releases/latest/download/manager.apk",
    "changelog":"- initial release" },
"instagram": {
    "version": "191.1.0.41.124",
    "versionCode": 1911041124, 
    "themes": [ "default", "gold", "red", "extradark", "blue", "coralpink", "green", "lighttone", "lightpurple", "lightpink"],
    "langs": [
      "en",
      "tr"
    ],
    "changelog": "EN\n- Aero Version 16.0.2\n- Based on 191.1.0.41.124.\n- Added some minor enable and disable options.\n- Some download issues fixed.\n- Comment translation bugs fixed and new languages added to the translation options.\n- Updated layout and other source files for fewer bugs.\n- Other minor fixes.\n\nTR\n- Aero Versiyon 16.0.2\n- 191.1.0.41.124'e göre.\n- Bazı küçük etkinleştirme ve devre dışı bırakma seçenekleri eklendi.\n- Bazı indirme sorunları düzeltildi.\n- Yorum çeviri hataları düzeltildi ve çeviri seçeneklerine yeni diller eklendi.\n- Daha az hata için güncellenmiş düzen ve diğer kaynak dosyalar.\n- Diğer küçük düzeltmeler."
  },
  "whatsapp": {
    "version": "2.21.4.22",
    "versionCode": 221422,
    "changelog": "EN\n- Aero Version 8.87\n- Based on 2.21.4.22\n\n- WhatsApp Aero expiration extended until next real/big WhatsApp Aero update (anti expriy mod).\n\n- Added new customization options for the story screen ( Aero Privileges 》Home Screen 》Status ).\n- Added new customization options for the archived chats row ( Aero Privileges 》Home Screen 》Rows ).\n- Added new customization options for chat screen action bar ( Aero Privileges 》Conversation Screen 》Action Bar ).\n- Added new customization options for chat cards ( Aero Privileges 》Home Screen 》Rows ).\n- Added 'iOS style V2' to bottom bar styles ( Aero Privileges 》Home Screen 》Header 》Bottom bar style ).\n- Added 'One UI - V5' to advanced home screen styles ( Aero Privileges 》Home Screen 》Header 》Advanced home screen styles ).\n- And other little things added like new text input styles.\n- Bugs that occur when opening the camera tab have been fixed.\n- The structure of the advanced home screen styles has been updated and edited. Many appearance errors have been fixed.\n- The bugs in the styles in the profile details design options have been fixed.\n -The blur effect is now disabled by default ( Aero Privileges 》Home Screen 》Blur effect enabled ).\n- Many other fixes and improvements.\n\nTR\n- Aero Versiyon 8.87\n- 2.21.4.22'ye göre.\n\n- WhatsApp Aero sona erme tarihi, bir sonraki büyük WhatsApp Aero güncellemesine kadar uzatıldı (anti expriy mod).\n\n- Hikaye ekranı için yeni kişiselleştirme seçenekleri eklendi ( Aero Ayrıcalıkları 》Ana Ekran 》Durum ).\n- Arşivlenmiş sohbetler satırı için yeni kişiselleştirme seçenekleri eklendi ( Aero Ayrıcalıkları 》Ana Ekran 》Satırlar ).\n- Sohbet ekranı eylem çubuğu için yeni kişiselleştirme seçenekleri eklendi ( Aero Ayrıcalıkları 》Konuşma Ekranı 》Eylem Çubuğu ).\n- Sohbet kartları için yeni kişiselleştirme seçenekleri eklendi ( Aero Ayrıcalıkları 》Ana Ekran 》Satırlar ).\n- Alt çubuk stillerine 'iOs stili V2' eklendi ( Aero Ayrıcalıkları 》Ana Ekran 》Üst Kısm 》Alt çubuk stili ).\n- Gelişmiş ana ekran stillerine 'One UI - V5' eklendi ( Aero Ayrıcalıkları 》Ana Ekran 》Üst Kısm 》Gelişmiş ana ekran stilleri ).\n- Ve yeni metin giriş stilleri gibi eklenen diğer küçük şeyler.\n- Kamera sekmesi açıldığında oluşan hatalar düzeltildi.\n- Gelişmiş ana ekran stillerinin yapısı güncellendi, düzenlendi. Birçok görünüm hatası düzeltildi.\n- Profil ayrıntıları dizaynı seçeneklerinde yer alan stillerdeki hatalar düzeltildi.\n- Blur efekti artık varsayılan olarak devredışı bırakıldı ( Aero Ayrıcalıkları 》Ana Ekran 》Blur efekti etkin ).\n- Diğer pek çok düzeltme ve iyileştirme."
  },
  "accountanalyzer": {
    "version": "1.0.1",
    "versionCode": 101,
    "url": "https://gitlab.com/mstf01/aeromanager/raw/main/accountanalyzer/AeroInsta_Account_Analyzer_HAZAR.apk",
    "changelog": "EN\n- You can now open the account analysis module app from your application menu without AeroInsta.\n- Speed improvements and fixes.\n- Follow requests and a few other options added.\n\nTR\n- Hesap analizi modülü uygulamasını artık AeroInsta olmadan uygulama menünüzden açabilirsiniz.\n- Hız iyileştirmeleri ve düzeltmeler.\n- İstekleri ve eklenen diğer birkaç seçeneği takip edin."
  },
  "twitter": {
    "version": "8.93.1-release.00",
    "versionCode": 28931000, 
    "themes": [ "default", "gold", "red", "extradark", "coralpink", "green", "lighttone", "lightpurple", "lightpink"],
    "langs": [
      "en",
      "tr"
    ],
    "changelog": "EN\n- Aero Version 0.2\n- Based on 8.93.1-release.00."
  }
}
